^F:\zRenovations\Format\VC\Projects\cudaSGMv2\cudaSGMv2\cudaSGMv2.vcxproj
F:\zRenovations\Format\VC\Projects\cudaSGMv2\x64\Release\cudaSGMv2.lib
F:\zRenovations\Format\VC\Projects\cudaSGMv2\x64\Release\cudaSGMv2.exp
^F:\zRenovations\Format\VC\Projects\cudaSGMv2\cudaSGMv2\cudaSGMv2.vcxproj
F:\zRenovations\Format\VC\Projects\cudaSGMv2\x64\Release\cudaSGMv2.lib
F:\zRenovations\Format\VC\Projects\cudaSGMv2\x64\Release\cudaSGMv2.exp
